{
    "name": "PlayerInput",
    "maps": [
        {
            "name": "Gameplay",
            "id": "b37d58cf-c053-42a7-87a3-0fa4231225ee",
            "actions": [
                {
                    "name": "Aim",
                    "type": "Value",
                    "id": "56a35dda-6427-40a6-8589-c9db3108f4bb",
                    "expectedControlType": "Vector2",
                    "processors": "",
                    "interactions": ""
                },
                {
                    "name": "Movement",
                    "type": "Value",
                    "id": "d9922140-0f25-41a0-b8ef-0ca5aa3ff815",
                    "expectedControlType": "Dpad",
                    "processors": "",
                    "interactions": ""
                }
            ],
            "bindings": [
                {
                    "name": "",
                    "id": "febcaa88-c64d-42aa-bab9-64e6d07d25bc",
                    "path": "<Pointer>/position",
                    "interactions": "",
                    "processors": "",
                    "groups": "",
                    "action": "Aim",
                    "isComposite": false,
                    "isPartOfComposite": false
                },
                {
                    "name": "WASD",
                    "id": "953d2a67-b7fc-4856-8880-3d96142f5a2e",
                    "path": "2DVector(mode=1)",
                    "interactions": "",
                    "processors": "",
                    "groups": "",
                    "action": "Movement",
                    "isComposite": true,
                    "isPartOfComposite": false
                },
                {
                    "name": "up",
                    "id": "80d844a6-f31d-4d1d-a486-6a5130a0bbc8",
                    "path": "<Keyboard>/w",
                    "interactions": "",
                    "processors": "",
                    "groups": "",
                    "action": "Movement",
                    "isComposite": false,
                    "isPartOfComposite": true
                },
                {
                    "name": "down",
                    "id": "2ba91311-04d2-4f1c-bd70-605a4c314f1b",
                    "path": "<Keyboard>/s",
                    "interactions": "",
                    "processors": "",
                    "groups": "",
                    "action": "Movement",
                    "isComposite": false,
                    "isPartOfComposite": true
                },
                {
                    "name": "left",
                    "id": "1a324d58-2f13-4cb6-80d0-7a9cf2b49a49",
                    "path": "<Keyboard>/a",
                    "interactions": "",
                    "processors": "",
                    "groups": "",
                    "action": "Movement",
                    "isComposite": false,
                    "isPartOfComposite": true
                },
                {
                    "name": "right",
                    "id": "f2eddba9-6de7-4bb0-81a4-98b7dafebd95",
                    "path": "<Keyboard>/d",
                    "interactions": "",
                    "processors": "",
                    "groups": "",
                    "action": "Movement",
                    "isComposite": false,
                    "isPartOfComposite": true
                }
            ]
        }
    ],
    "controlSchemes": []
}